<?xml version="1.0" encoding="utf-8"?>
<!-- Generator: Adobe Illustrator 22.0.0, SVG Export Plug-In . SVG Version: 6.00 Build 0)  -->
<svg version="1.1" id="Layer_1" xmlns="http://www.w3.org/2000/svg" xmlns:xlink="http://www.w3.org/1999/xlink" x="0px" y="0px"
	 viewBox="0 0 200 200" style="enable-background:new 0 0 200 200;" xml:space="preserve">
<style type="text/css">
	.st0{fill:#847776;}
</style>
<g>
	<path class="st0" d="M35.8,129.3l-1.9-4.5H34c0.1,0.3,0.3,0.6,0.4,0.9c0.1,0.2,0.2,0.4,0.3,0.5s0.1,0.1,0.2,0.1
		c0.1,0,0.2,0,0.4-0.1l5.9-2.5c0.2-0.1,0.3-0.2,0.4-0.2c0,0,0-0.1,0-0.2c0-0.3-0.2-0.8-0.5-1.5h0.1l1.9,4.5c0.4,0.9,0.4,1.8,0,2.7
		c-0.4,1.1-1.2,1.9-2.3,2.4s-2.2,0.5-3.2,0.1C36.9,131,36.2,130.3,35.8,129.3z M35.9,129.3c0.3,0.7,0.8,1.1,1.6,1.2
		c0.7,0.1,1.7-0.1,2.9-0.6c1.1-0.5,1.9-1,2.4-1.6c0.5-0.6,0.6-1.3,0.3-2c-0.2-0.4-0.3-0.6-0.4-0.8c-0.1-0.2-0.2-0.3-0.2-0.4
		c-0.1-0.1-0.1-0.1-0.2-0.1c-0.1,0-0.2,0-0.4,0.1l-5.9,2.5c-0.2,0.1-0.4,0.2-0.4,0.2c-0.1,0.1-0.1,0.1-0.1,0.2s0.1,0.3,0.2,0.5
		C35.7,128.8,35.8,129,35.9,129.3z"/>
	<path class="st0" d="M48.5,137.4l-5.3,3.6c-0.2,0.1-0.3,0.2-0.4,0.3c0,0,0,0.1,0,0.2c0.1,0.3,0.3,0.7,0.7,1.3l-0.1,0.1l-2.7-4.1
		l0.1-0.1c0.2,0.3,0.4,0.5,0.5,0.8c0.2,0.2,0.3,0.3,0.4,0.4c0.1,0.1,0.2,0.1,0.2,0.1c0.1,0,0.2-0.1,0.4-0.2l5.4-3.6
		c0.2-0.1,0.3-0.2,0.3-0.3c0,0,0-0.1,0-0.2c-0.1-0.3-0.3-0.7-0.7-1.3l0.1-0.1l2.7,4.1l-0.1,0.1c-0.2-0.3-0.4-0.5-0.5-0.8
		c-0.2-0.2-0.3-0.3-0.4-0.4l-0.1-0.1C48.9,137.2,48.8,137.3,48.5,137.4z"/>
	<path class="st0" d="M55.9,146c0.6,0.1,1,0.1,1.1,0.1l-2,1.9v-0.1c0.4-0.6,0.7-1.2,0.7-1.9s-0.2-1.3-0.6-1.7
		c-0.3-0.3-0.6-0.5-1-0.6s-0.8,0-1.2,0.3c-0.3,0.3-0.4,0.7-0.4,1.2c0.1,0.4,0.3,1,0.7,1.7c0.5,0.9,0.8,1.6,0.9,1.9
		c0.1,0.6-0.2,1.2-0.8,1.8s-1.2,0.8-1.9,0.7c-0.6-0.1-1.1-0.3-1.5-0.8c-0.3-0.4-0.6-0.7-0.7-1.1c-0.2-0.4-0.2-0.8-0.1-1.3
		c-0.8,0.1-1.2,0.1-1.3,0.1l2.5-2.4l0.1,0.1c-0.4,0.6-0.7,1.1-0.9,1.6c-0.2,0.4-0.2,0.7-0.3,1.1c0,0.6,0.2,1.3,0.8,1.9
		c0.3,0.3,0.6,0.5,1,0.5c0.5,0.1,0.9-0.1,1.2-0.4c0.4-0.4,0.5-0.9,0.4-1.4c-0.1-0.4-0.3-1-0.8-1.8c-0.4-0.8-0.7-1.4-0.7-1.8
		c-0.1-0.6,0.2-1.2,0.7-1.7c0.5-0.4,1-0.6,1.7-0.6c0.6,0,1.2,0.3,1.6,0.7c0.4,0.4,0.6,0.8,0.7,1.1C55.8,145.3,55.8,145.6,55.9,146z"
		/>
	<path class="st0" d="M62,155.5l-1.9,2.7c-0.1,0.2-0.2,0.3-0.2,0.4c0,0.1,0,0.2,0.1,0.3s0.2,0.2,0.3,0.3s0.4,0.3,0.8,0.5
		c0.8,0.5,1.5,0.7,2.2,0.5s1.5-0.7,2.3-1.7l0.1,0.1l-2.1,3l-6.6-4.7v0.1c0.6,0.4,1,0.7,1.3,0.7c0.1,0,0.2,0,0.2,0
		c0.1,0,0.1-0.1,0.3-0.3l3.7-5.2c0.1-0.2,0.2-0.3,0.2-0.4c0,0,0-0.1-0.1-0.2c-0.1-0.1-0.2-0.2-0.4-0.4s-0.5-0.4-0.7-0.6l0.1-0.1
		l6.3,4.4l-1.8,2.6l-0.1-0.1c0.4-0.5,0.6-1.1,0.7-1.8c0.1-0.9-0.2-1.6-0.8-2c-0.3-0.2-0.5-0.4-0.8-0.5c-0.3-0.2-0.5-0.3-0.8-0.4
		c-0.1,0-0.1,0-0.2,0s-0.2,0.1-0.3,0.3l-1.7,2.4c0.7,0.5,1.2,0.7,1.5,0.7c0.4,0,1-0.5,1.8-1.4l0.1,0.1l-2.8,4l-0.1-0.1
		c0.6-1,0.8-1.7,0.7-2.1C63.1,156.4,62.7,156,62,155.5z"/>
	<path class="st0" d="M77.4,165.7l1.3-3.2c0.3-0.7,0.4-1.2,0.2-1.6c-0.1-0.4-0.5-0.7-1.1-0.9v-0.1l3.3,1.4v0.1
		c-0.5-0.2-1-0.3-1.3-0.1s-0.6,0.6-0.9,1.3l-2.3,5.5l-0.3-0.1l-2-8l-0.1-0.2c0,0-0.1,0.1-0.1,0.2l-1.6,3.8c-0.4,0.8-0.5,1.5-0.4,1.8
		c0.1,0.4,0.5,0.7,1.1,1v0.1l-3.4-1.4v-0.1c0.6,0.2,1.1,0.3,1.4,0.1s0.6-0.6,0.9-1.3l1.6-3.9c0.2-0.4,0.2-0.8,0.1-1.2
		c-0.2-0.4-0.5-0.7-1-0.9v-0.1l2.4,1l1.8,6.8c0,0.2,0.1,0.3,0.1,0.3C77.3,166,77.4,165.9,77.4,165.7z M76,158.4
		c0.5-0.3,0.9-0.5,1.1-0.6s0.5-0.1,0.6,0c0.2,0.1,0.4,0.2,0.6,0.5c0.2,0.2,0.4,0.4,0.5,0.5l0.1,0.1c0,0,0.1,0,0.1,0.1
		c0.1,0.1,0.3,0,0.5-0.1c0.1-0.1,0.2-0.1,0.3-0.2l0.1,0.1c-0.5,0.3-0.9,0.6-1.1,0.6c-0.2,0.1-0.4,0.1-0.6,0
		c-0.1-0.1-0.3-0.2-0.5-0.4c-0.3-0.3-0.5-0.5-0.6-0.6s-0.1-0.1-0.2-0.1c-0.1-0.1-0.3-0.1-0.5,0s-0.4,0.2-0.5,0.3L76,158.4z"/>
	<path class="st0" d="M92.5,167.9c-0.2,1.2-0.8,2.1-1.8,2.8c-0.9,0.6-1.8,0.8-2.7,0.6c-0.9-0.2-1.7-0.7-2.3-1.5
		c-0.7-0.9-0.9-2-0.6-3.3c0.2-1.2,0.8-2.1,1.8-2.7c0.9-0.6,1.8-0.8,2.7-0.6c0.9,0.2,1.7,0.7,2.3,1.5
		C92.5,165.5,92.7,166.6,92.5,167.9z M90.9,167.6c0.2-1.3,0.3-2.3,0-3c-0.2-0.7-0.7-1.2-1.4-1.3c-0.7-0.1-1.3,0.1-1.7,0.7
		c-0.5,0.6-0.8,1.6-1.1,2.8c-0.2,1.3-0.3,2.3,0,3c0.2,0.7,0.7,1.2,1.4,1.3c0.7,0.1,1.3-0.1,1.7-0.7
		C90.3,169.8,90.6,168.9,90.9,167.6z"/>
	<path class="st0" d="M109.2,171.1l-0.9-6.3c0-0.2-0.1-0.4-0.1-0.4s-0.1-0.1-0.2-0.1s-0.3,0-0.6,0c-0.3,0-0.6,0-0.9,0.1v-0.1
		l7.6-1.1l0.4,3.1h-0.2c-0.1-0.6-0.3-1.2-0.7-1.8c-0.5-0.7-1.2-1-2-0.9c-0.5,0.1-0.9,0.1-1.1,0.2c-0.2,0-0.4,0.1-0.6,0.2l-0.1,0.1
		c0,0.1-0.1,0.2,0,0.5l0.4,2.9c0.9-0.1,1.4-0.3,1.6-0.5c0.3-0.3,0.4-1.1,0.4-2.2h0.1l0.7,4.9h-0.1c-0.2-1.1-0.4-1.8-0.9-2
		c-0.3-0.1-0.9-0.2-1.8,0l0.5,3.3c0,0.2,0.1,0.4,0.1,0.4s0.1,0.1,0.2,0.1s0.3,0,0.6,0c0.3,0,0.7-0.1,1.2-0.1v0.1l-5.2,0.7v-0.1
		c0.4-0.1,0.7-0.1,0.9-0.2c0.3-0.1,0.4-0.1,0.5-0.2c0.1-0.1,0.1-0.1,0.2-0.2C109.2,171.5,109.2,171.3,109.2,171.1z"/>
	<path class="st0" d="M126.3,167.6c0.9-0.3,1.6-0.9,1.8-1.7c0.3-0.8,0.2-1.7-0.2-2.9l0.2-0.1l1.3,3.6l-7.7,2.8v-0.1
		c0.3-0.1,0.6-0.2,0.9-0.4c0.2-0.1,0.4-0.2,0.5-0.3s0.1-0.1,0.1-0.2c0-0.1,0-0.2-0.1-0.4l-2.2-6c-0.1-0.2-0.2-0.4-0.2-0.4
		s-0.1,0-0.2,0s-0.3,0-0.6,0.1c-0.3,0.1-0.6,0.2-0.9,0.3v-0.1l4.8-1.8v0.1c-0.4,0.2-0.8,0.3-1,0.4c-0.2,0.1-0.4,0.2-0.5,0.3
		s-0.1,0.1-0.1,0.2c0,0.1,0,0.2,0.1,0.4l2.2,6c0.1,0.2,0.2,0.4,0.2,0.4s0.1,0,0.2,0C125.2,168,125.7,167.9,126.3,167.6z"/>
	<path class="st0" d="M139.9,156.1c0.6,1,0.8,2.1,0.6,3.2c-0.2,1-0.8,1.8-1.6,2.3s-1.7,0.7-2.7,0.5c-1.1-0.2-2-0.9-2.7-2
		c-0.6-1-0.8-2.1-0.6-3.2c0.3-1,0.8-1.8,1.6-2.3s1.7-0.7,2.7-0.5C138.4,154.4,139.3,155,139.9,156.1z M138.5,157
		c-0.7-1.1-1.4-1.9-2-2.3c-0.7-0.4-1.3-0.4-1.9,0c-0.6,0.4-0.9,0.9-0.8,1.7c0.1,0.8,0.4,1.7,1.1,2.8c0.7,1.1,1.4,1.8,2,2.2
		c0.7,0.4,1.3,0.4,1.9,0c0.6-0.4,0.8-0.9,0.8-1.7C139.6,159,139.2,158.1,138.5,157z"/>
	<path class="st0" d="M152.4,148.2l0.3,0.3c0.3,0.4,0.5,0.6,0.6,0.8c0.1,0.3,0,0.7-0.3,1c-0.4,0.4-0.8,0.5-1.3,0.3
		c-0.4-0.1-0.9-0.6-1.5-1.3l-0.2-0.2c-0.1-0.1-0.1-0.1-0.2-0.2c-0.3-0.3-0.6-0.5-0.8-0.4c-0.3,0-0.5,0.2-0.8,0.5l-1.1,1l2.3,2.4
		c0.2,0.2,0.3,0.3,0.4,0.3c0.1,0,0.1,0,0.2,0c0.1,0,0.3-0.2,0.5-0.4s0.4-0.4,0.7-0.6l0.1,0.1l-3.7,3.5l-0.1-0.1c0.6-0.6,1-1,1.1-1.2
		c0-0.1,0-0.2,0-0.2c0-0.1-0.1-0.2-0.3-0.4l-4.5-4.6c-0.2-0.2-0.3-0.3-0.3-0.3s-0.1,0-0.2,0c-0.2,0.1-0.6,0.4-1.2,1l-0.1-0.1
		l3.7-3.5c0.6-0.6,1.3-0.9,2-1c0.6,0,1,0.1,1.3,0.4c0.3,0.3,0.5,0.7,0.5,1.2s-0.3,1.2-0.9,1.8c0.8-0.5,1.5-0.5,2.3-0.1
		c0.4,0.2,0.9,0.6,1.4,1.2c0.2,0.2,0.3,0.3,0.4,0.3c0.1,0,0.2,0,0.3-0.1s0.1-0.3,0-0.6C152.9,148.9,152.6,148.6,152.4,148.2
		L152.4,148.2z M147,149.9l0.8-0.8c0.4-0.4,0.7-0.8,0.7-1.2c0.1-0.4-0.1-0.9-0.6-1.3c-0.5-0.5-0.9-0.8-1.3-0.8
		c-0.4,0-0.8,0.2-1.3,0.7l-0.4,0.4c-0.1,0.1-0.2,0.2-0.3,0.3c0,0.1,0,0.2,0,0.2c0,0.1,0.1,0.2,0.3,0.4L147,149.9z"/>
	<path class="st0" d="M158.3,138.6l-1.3,2l0.7,0.9c0.2,0.2,0.3,0.4,0.5,0.5c0.3,0.2,0.5,0.2,0.7,0.1c0.2-0.1,0.5-0.4,0.7-0.7
		l0.1,0.1l-1.8,2.6l-0.1-0.1c0.3-0.5,0.4-1,0.2-1.5c-0.1-0.3-0.4-0.7-0.9-1.4l-3.7-5l0.1-0.2l7.6,1.8c0.4,0.1,0.6,0.1,0.7,0
		c0.1-0.1,0.4-0.4,0.7-0.9l0.1,0.1l-2.6,3.8l-0.1-0.1c0.3-0.5,0.6-0.9,0.7-1.1c0.1-0.2,0.1-0.4,0-0.4l-0.1-0.1L158.3,138.6z
		 M158.2,138.6l-3.3-0.8l2,2.7L158.2,138.6z"/>
	<path class="st0" d="M167.5,126.4c0.4-0.9,0.4-1.8,0-2.5s-1.1-1.3-2.3-1.8l0.1-0.2l3.6,1.4l-3,7.6h-0.1c0.1-0.3,0.2-0.6,0.3-0.9
		c0.1-0.2,0.1-0.4,0.1-0.5s0-0.2-0.1-0.2c0,0-0.2-0.1-0.4-0.2l-6-2.3c-0.2-0.1-0.4-0.1-0.4-0.1s-0.1,0-0.2,0.1
		c-0.1,0.1-0.2,0.2-0.3,0.5c-0.1,0.2-0.3,0.5-0.4,0.8h-0.1l1.9-4.8h0.1c-0.2,0.4-0.3,0.8-0.4,1c-0.1,0.3-0.1,0.4-0.1,0.6
		c0,0.1,0,0.2,0,0.2c0.1,0.1,0.2,0.1,0.4,0.2l6,2.3c0.2,0.1,0.4,0.1,0.4,0.1s0.1,0,0.1-0.1C167,127.5,167.2,127.1,167.5,126.4z"/>
	<g>
		<g>
			<path class="st0" d="M20.4,157.1c-0.3,0-0.6-0.1-0.8-0.3c-0.2-0.2-0.3-0.5-0.3-0.8s0.1-0.6,0.3-0.8c0.4-0.4,1.1-0.4,1.6,0
				c0.2,0.2,0.3,0.5,0.3,0.8s-0.1,0.6-0.3,0.8C21,157,20.7,157.1,20.4,157.1z"/>
		</g>
		<g>
			<path class="st0" d="M14.6,149.1c-0.3-0.5-0.1-1.2,0.4-1.5l0,0c0.5-0.3,1.2-0.1,1.5,0.4l0,0c0.3,0.5,0.1,1.2-0.4,1.5l0,0
				c-0.2,0.1-0.4,0.2-0.6,0.2l0,0C15.2,149.7,14.8,149.5,14.6,149.1z M185.4,147.6c-0.5-0.3-0.7-1-0.4-1.5l0,0
				c0.3-0.5,1-0.7,1.5-0.4l0,0c0.5,0.3,0.7,1,0.4,1.5l0,0c-0.2,0.4-0.6,0.6-1,0.6l0,0C185.7,147.7,185.5,147.6,185.4,147.6z
				 M10.4,141.2c-0.3-0.6,0-1.2,0.5-1.5l0,0c0.6-0.3,1.2,0,1.5,0.5l0,0c0.3,0.6,0,1.2-0.5,1.5l0,0c-0.1,0.1-0.3,0.1-0.5,0.1l0,0
				C11,141.8,10.6,141.6,10.4,141.2z M189.4,139.6c-0.6-0.2-0.8-0.9-0.6-1.5l0,0c0.3-0.6,0.9-0.8,1.5-0.6l0,0
				c0.6,0.2,0.8,0.9,0.6,1.5l0,0l0,0l0,0c-0.2,0.4-0.6,0.7-1,0.7l0,0C189.7,139.7,189.6,139.7,189.4,139.6z M7,132.8L7,132.8
				L7,132.8c-0.2-0.6,0.1-1.2,0.7-1.4l0,0c0.6-0.2,1.2,0.1,1.4,0.7l0,0c0.2,0.6-0.1,1.2-0.7,1.4l0,0c-0.1,0-0.3,0.1-0.4,0.1l0,0
				C7.6,133.6,7.1,133.3,7,132.8z M192.7,131.4c-0.6-0.2-0.9-0.8-0.7-1.4l0,0c0.2-0.6,0.8-0.9,1.4-0.7l0,0c0.6,0.2,0.9,0.8,0.7,1.4
				l0,0c-0.2,0.5-0.6,0.8-1,0.8l0,0C193,131.4,192.9,131.4,192.7,131.4z M4.3,124.2L4.3,124.2L4.3,124.2c-0.2-0.6,0.2-1.2,0.8-1.3
				l0,0c0.6-0.2,1.2,0.2,1.3,0.8l0,0c0.2,0.6-0.2,1.2-0.8,1.3l0,0c-0.1,0-0.2,0-0.3,0l0,0C4.9,125.1,4.4,124.7,4.3,124.2z
				 M195.3,122.8c-0.6-0.1-1-0.7-0.8-1.3l0,0c0.1-0.6,0.7-1,1.3-0.8l0,0c0.6,0.1,1,0.7,0.8,1.3l0,0l0,0l0,0
				c-0.1,0.5-0.6,0.8-1.1,0.8l0,0C195.5,122.9,195.4,122.9,195.3,122.8z M2.4,115.5c-0.1-0.6,0.3-1.2,0.9-1.3l0,0
				c0.6-0.1,1.2,0.3,1.3,0.9l0,0c0.1,0.6-0.3,1.2-0.9,1.3l0,0c-0.1,0-0.1,0-0.2,0l0,0C3,116.4,2.5,116,2.4,115.5z M197,114.1
				c-0.6-0.1-1-0.6-0.9-1.2l0,0c0.1-0.6,0.6-1,1.3-0.9l0,0c0.6,0.1,1,0.6,0.9,1.3l0,0c-0.1,0.6-0.6,0.9-1.1,0.9l0,0
				C197.1,114.1,197.1,114.1,197,114.1z M1.3,106.5L1.3,106.5L1.3,106.5c0-0.6,0.4-1.1,1-1.2l0,0c0.6,0,1.1,0.4,1.2,1l0,0
				c0,0.6-0.4,1.1-1,1.2l0,0H2.4l0,0C1.9,107.5,1.4,107.1,1.3,106.5z M198,105.3c-0.6,0-1.1-0.6-1-1.2l0,0c0-0.6,0.6-1.1,1.2-1l0,0
				c0.6,0,1.1,0.6,1,1.2l0,0C199.1,104.8,198.6,105.3,198,105.3L198,105.3L198,105.3z M2.2,98.6c-0.6,0-1.1-0.5-1.1-1.1l0,0
				c0-0.6,0.5-1.1,1.1-1.1l0,0c0.6,0,1.1,0.5,1.1,1.1l0,0C3.3,98.2,2.8,98.6,2.2,98.6L2.2,98.6L2.2,98.6z M197,95.3
				c0-0.6,0.4-1.1,1.1-1.1l0,0c0.6,0,1.1,0.4,1.1,1.1l0,0l0,0l0,0c0,0.6-0.5,1.1-1.1,1.1l0,0l0,0l0,0C197.5,96.4,197,95.9,197,95.3z
				 M2.6,89.8c-0.6-0.1-1.1-0.6-1-1.2l0,0c0.1-0.6,0.6-1,1.2-1l0,0c0.6,0.1,1,0.6,1,1.2l0,0C3.7,89.4,3.3,89.8,2.6,89.8L2.6,89.8
				C2.7,89.8,2.6,89.8,2.6,89.8z M196.3,86.5c-0.1-0.6,0.3-1.2,0.9-1.2l0,0c0.6-0.1,1.2,0.4,1.2,1l0,0c0.1,0.6-0.3,1.2-0.9,1.2l0,0
				c-0.1,0-0.1,0-0.1,0l0,0C196.8,87.5,196.3,87.1,196.3,86.5z M3.8,81c-0.6-0.1-1-0.7-0.9-1.3l0,0c0.1-0.6,0.7-1,1.3-0.9l0,0
				c0.6,0.1,1,0.7,0.9,1.3l0,0C5,80.6,4.6,81,4.1,81l0,0C4,81,3.9,81,3.8,81z M194.8,77.9c-0.1-0.6,0.2-1.2,0.8-1.3l0,0
				c0.6-0.1,1.2,0.2,1.3,0.8l0,0c0.1,0.6-0.2,1.2-0.8,1.3l0,0c-0.1,0-0.2,0-0.2,0l0,0C195.3,78.7,194.9,78.4,194.8,77.9z M5.9,72.3
				c-0.6-0.2-0.9-0.8-0.8-1.4l0,0c0.2-0.6,0.8-0.9,1.4-0.8l0,0c0.6,0.2,0.9,0.8,0.7,1.4l0,0c-0.1,0.5-0.6,0.8-1.1,0.8l0,0
				C6.1,72.3,6,72.3,5.9,72.3z M192.5,69.4L192.5,69.4c-0.2-0.6,0.1-1.2,0.7-1.4l0,0c0.6-0.2,1.2,0.1,1.4,0.7l0,0l0,0l0,0
				c0.2,0.6-0.1,1.2-0.7,1.4l0,0c-0.1,0-0.2,0.1-0.3,0.1l0,0C193,70.1,192.6,69.9,192.5,69.4z M8.7,63.8c-0.6-0.2-0.8-0.9-0.6-1.4
				l0,0c0.2-0.6,0.9-0.8,1.4-0.6l0,0c0.6,0.2,0.8,0.9,0.6,1.4l0,0c-0.2,0.4-0.6,0.7-1,0.7l0,0C9,63.9,8.8,63.9,8.7,63.8z
				 M189.4,61.1L189.4,61.1c-0.2-0.6,0-1.2,0.6-1.5l0,0c0.6-0.2,1.2,0,1.4,0.6l0,0c0.2,0.6,0,1.2-0.6,1.5l0,0
				c-0.1,0.1-0.3,0.1-0.4,0.1l0,0C190,61.8,189.6,61.6,189.4,61.1z M12.3,55.7c-0.5-0.3-0.8-0.9-0.5-1.5l0,0
				c0.3-0.5,0.9-0.8,1.5-0.5l0,0c0.5,0.3,0.8,0.9,0.5,1.5l0,0c-0.2,0.4-0.6,0.6-1,0.6l0,0C12.6,55.8,12.4,55.8,12.3,55.7z
				 M185.6,53.2L185.6,53.2c-0.3-0.5-0.1-1.2,0.4-1.5l0,0c0.5-0.3,1.2-0.1,1.5,0.4l0,0c0.3,0.5,0.1,1.2-0.4,1.5l0,0
				c-0.2,0.1-0.3,0.1-0.5,0.1l0,0C186.1,53.8,185.8,53.6,185.6,53.2z M16.6,47.9c-0.5-0.3-0.7-1-0.3-1.5l0,0c0.3-0.5,1-0.7,1.5-0.3
				l0,0c0.5,0.3,0.7,1,0.3,1.5l0,0c-0.2,0.3-0.6,0.5-0.9,0.5l0,0C17,48.1,16.7,48,16.6,47.9z M181,45.7c-0.3-0.5-0.2-1.2,0.3-1.5
				l0,0c0.5-0.3,1.2-0.2,1.5,0.3l0,0c0.3,0.5,0.2,1.2-0.3,1.5l0,0c-0.2,0.1-0.4,0.2-0.6,0.2l0,0C181.6,46.2,181.3,46,181,45.7z
				 M21.6,40.5c-0.5-0.4-0.6-1.1-0.2-1.5l0,0c0.4-0.5,1.1-0.6,1.5-0.2l0,0c0.5,0.4,0.6,1.1,0.2,1.6l0,0c-0.2,0.3-0.6,0.4-0.9,0.4
				l0,0C22,40.8,21.8,40.7,21.6,40.5z M175.9,38.6L175.9,38.6c-0.4-0.5-0.3-1.2,0.2-1.6l0,0c0.5-0.4,1.2-0.3,1.6,0.2l0,0
				c0.4,0.5,0.3,1.2-0.2,1.6l0,0c-0.2,0.2-0.4,0.2-0.7,0.2l0,0C176.4,39,176.1,38.8,175.9,38.6z M27.2,33.6
				c-0.4-0.4-0.5-1.1-0.1-1.6l0,0c0.4-0.4,1.1-0.5,1.6-0.1l0,0c0.4,0.4,0.5,1.1,0.1,1.6l0,0c-0.2,0.2-0.5,0.4-0.8,0.4l0,0
				C27.7,33.9,27.4,33.8,27.2,33.6z M170.1,31.9c-0.4-0.4-0.4-1.1,0-1.6l0,0c0.4-0.4,1.1-0.4,1.6,0l0,0l0,0l0,0
				c0.4,0.4,0.4,1.1,0,1.6l0,0c-0.2,0.2-0.5,0.3-0.8,0.3l0,0C170.6,32.3,170.3,32.2,170.1,31.9z M33.4,27.3
				c-0.4-0.4-0.4-1.1,0.1-1.6l0,0l0,0l0,0c0.4-0.4,1.1-0.4,1.6,0.1l0,0c0.4,0.4,0.4,1.1-0.1,1.6l0,0c-0.2,0.2-0.5,0.3-0.7,0.3l0,0
				C33.9,27.7,33.6,27.5,33.4,27.3z M163.7,25.9c-0.5-0.4-0.5-1.1-0.1-1.6l0,0c0.4-0.5,1.1-0.5,1.6-0.1l0,0c0.5,0.4,0.5,1.1,0.1,1.6
				l0,0c-0.2,0.3-0.5,0.4-0.8,0.4l0,0C164.2,26.1,163.9,26.1,163.7,25.9z M40.2,21.5c-0.4-0.5-0.3-1.2,0.2-1.5l0,0
				c0.5-0.4,1.2-0.3,1.6,0.2l0,0c0.4,0.5,0.3,1.2-0.2,1.5l0,0c-0.2,0.1-0.4,0.2-0.7,0.2l0,0C40.8,22,40.4,21.8,40.2,21.5z
				 M156.8,20.4L156.8,20.4c-0.5-0.4-0.6-1-0.3-1.5l0,0c0.4-0.5,1-0.6,1.5-0.3l0,0l0,0l0,0c0.5,0.4,0.6,1,0.3,1.5l0,0
				c-0.2,0.3-0.6,0.5-0.9,0.5l0,0C157.2,20.6,157,20.6,156.8,20.4z M47.5,16.4c-0.3-0.5-0.2-1.2,0.4-1.5l0,0
				c0.5-0.3,1.2-0.2,1.5,0.4l0,0c0.3,0.5,0.2,1.2-0.4,1.5l0,0c-0.2,0.1-0.4,0.2-0.6,0.2l0,0C48,16.9,47.7,16.8,47.5,16.4z
				 M149.4,15.6c-0.5-0.3-0.7-1-0.4-1.5l0,0c0.3-0.5,1-0.7,1.5-0.4l0,0c0.5,0.3,0.7,1,0.4,1.5l0,0c-0.2,0.3-0.6,0.5-1,0.5l0,0
				C149.8,15.7,149.6,15.7,149.4,15.6z M55.2,12c-0.3-0.5-0.1-1.2,0.5-1.5l0,0c0.5-0.3,1.2-0.1,1.5,0.5l0,0c0.3,0.5,0.1,1.2-0.5,1.5
				l0,0c-0.2,0.1-0.3,0.1-0.5,0.1l0,0C55.8,12.6,55.4,12.4,55.2,12z M141.7,11.5c-0.6-0.3-0.8-0.9-0.5-1.5l0,0
				c0.3-0.6,0.9-0.8,1.5-0.5l0,0l0,0l0,0c0.6,0.3,0.8,0.9,0.5,1.5l0,0c-0.2,0.4-0.6,0.6-1,0.6l0,0C142,11.6,141.8,11.5,141.7,11.5z
				 M63.3,8.2c-0.3-0.5,0-1.2,0.6-1.4l0,0l0,0l0,0c0.6-0.2,1.2,0.1,1.4,0.6l0,0c0.2,0.6-0.1,1.2-0.6,1.4l0,0
				c-0.1,0.1-0.3,0.1-0.4,0.1l0,0C63.9,8.9,63.4,8.7,63.3,8.2z M133.5,8.1L133.5,8.1c-0.6-0.2-0.9-0.8-0.7-1.4l0,0
				c0.2-0.6,0.8-0.9,1.4-0.7l0,0c0.6,0.2,0.9,0.8,0.7,1.4l0,0c-0.2,0.4-0.6,0.7-1,0.7l0,0C133.8,8.1,133.7,8.1,133.5,8.1z M71.7,5.3
				c-0.2-0.6,0.2-1.2,0.8-1.4l0,0c0.6-0.2,1.2,0.2,1.4,0.8l0,0c0,0.5-0.3,1.2-0.9,1.3l0,0c-0.1,0-0.2,0-0.3,0l0,0
				C72.2,6.1,71.8,5.8,71.7,5.3z M125.2,5.4c-0.6-0.2-0.9-0.8-0.8-1.4l0,0c0.2-0.6,0.8-0.9,1.4-0.8l0,0c0.6,0.2,0.9,0.8,0.8,1.4l0,0
				c-0.1,0.5-0.6,0.8-1.1,0.8l0,0C125.4,5.5,125.3,5.4,125.2,5.4z M80.3,3.1c-0.1-0.6,0.3-1.2,0.9-1.3l0,0l0,0l0,0
				c0.6-0.1,1.2,0.3,1.3,0.9l0,0c0.1,0.6-0.3,1.2-0.9,1.3l0,0c-0.1,0-0.1,0-0.2,0l0,0C80.8,4,80.4,3.6,80.3,3.1z M116.6,3.5
				c-0.6-0.1-1-0.7-0.9-1.3l0,0c0.1-0.6,0.7-1,1.3-0.9l0,0c0.6,0.1,1,0.7,0.9,1.3l0,0c-0.1,0.5-0.6,0.9-1.1,0.9l0,0
				C116.7,3.6,116.6,3.6,116.6,3.5z M89.1,1.7c-0.1-0.6,0.4-1.1,1-1.2l0,0c0.6-0.1,1.1,0.4,1.2,1l0,0c0.1,0.6-0.4,1.1-1,1.2l0,0
				h-0.1l0,0C89.6,2.7,89.1,2.2,89.1,1.7z M107.8,2.5c-0.6-0.1-1.1-0.6-1-1.2l0,0c0.1-0.6,0.6-1.1,1.2-1l0,0c0.6,0,1.1,0.6,1,1.2
				l0,0C109,2,108.5,2.5,107.8,2.5L107.8,2.5C107.9,2.5,107.9,2.5,107.8,2.5z M97.9,1.1C97.9,0.5,98.4,0,99,0l0,0l0,0l0,0
				c0.6,0,1.1,0.5,1.1,1.1l0,0c0,0.6-0.5,1.1-1.1,1.1l0,0l0,0l0,0C98.4,2.2,97.9,1.7,97.9,1.1z"/>
		</g>
		<g>
			<path class="st0" d="M181.2,155.4c-0.3,0-0.6-0.1-0.8-0.3s-0.3-0.5-0.3-0.8s0.1-0.6,0.3-0.8c0.4-0.4,1.1-0.4,1.6,0
				c0.2,0.2,0.3,0.5,0.3,0.8s-0.1,0.6-0.3,0.8C181.7,155.3,181.5,155.4,181.2,155.4z"/>
		</g>
	</g>
	<g>
		<g>
			<path class="st0" d="M129.5,193.4c-3.1-2.3-7.3-1.8-7.3-1.8s0.9,4.1,4,6.4c3.1,2.3,7.3,1.8,7.3,1.8S132.6,195.6,129.5,193.4z"/>
			<path class="st0" d="M143.3,189.1c-4.2-1.9-8.9-0.7-8.9-0.7s2.2,4.3,6.4,6.2s8.9,0.7,8.9,0.7S147.5,191,143.3,189.1z"/>
			<path class="st0" d="M157.9,182c-6.6-1.2-12.7,1.5-12.7,1.5s4.7,4.7,11.3,5.9s12.7-1.5,12.7-1.5S164.6,183.2,157.9,182z"/>
			<path class="st0" d="M165.8,172.9c-4.7-0.1-8.5,3.1-8.5,3.1s3.7,3.4,8.4,3.5s8.5-3.1,8.5-3.1S170.4,173,165.8,172.9z"/>
			<path class="st0" d="M173.3,163.7c-4.5,0.9-7.6,4.1-7.6,4.1s4.1,1.8,8.6,0.9c4.5-0.9,7.6-4.1,7.6-4.1S177.8,162.9,173.3,163.7z"
				/>
			<path class="st0" d="M169.7,152.4c-1.6,5.8,0.4,11.3,0.4,11.3s4.5-3.8,6.1-9.5c1.6-5.8-0.4-11.3-0.4-11.3
				S171.2,146.6,169.7,152.4z"/>
			<path class="st0" d="M159.4,163.4c-0.1,4.6,2.4,8.3,2.4,8.3s2.7-3.6,2.8-8.2c0.1-4.6-2.4-8.3-2.4-8.3S159.5,158.9,159.4,163.4z"
				/>
			<path class="st0" d="M143.7,173.7c-0.8,5,1.9,9.6,1.9,9.6s4.1-3.5,4.9-8.4c0.8-5-1.9-9.6-1.9-9.6S144.5,168.8,143.7,173.7z"/>
			<path class="st0" d="M129.8,183.8c-2,3-1.9,6.6-1.9,6.6s3.3-1.3,5.3-4.3s1.9-6.6,1.9-6.6S131.8,180.8,129.8,183.8z"/>
			<path class="st0" d="M107.9,192.7c0,0,1.2,0.1,3.3,0c2.1-0.1,5-0.4,8.5-0.9c3.5-0.6,7.5-1.5,11.7-2.9c2.1-0.7,4.3-1.5,6.4-2.3
				c2.1-0.9,4.3-1.9,6.4-3l1.6-0.8l1.5-0.9c1-0.6,2-1.2,3-1.8c2-1.2,3.8-2.5,5.6-3.9c0.9-0.6,1.7-1.4,2.6-2c0.8-0.6,1.6-1.3,2.4-2
				c0.8-0.7,1.5-1.3,2.2-2s1.4-1.3,2-1.9c0.6-0.6,1.2-1.2,1.8-1.8s1.1-1.1,1.6-1.7c1-1.1,1.8-2,2.5-2.8c1.3-1.6,2.1-2.5,2.1-2.5
				s-0.7,0.9-2,2.6c-0.6,0.8-1.5,1.8-2.4,2.9c-0.9,1.1-2.1,2.3-3.3,3.6c-0.6,0.6-1.3,1.3-2,2s-1.4,1.4-2.2,2
				c-0.8,0.7-1.5,1.4-2.4,2.1c-0.8,0.7-1.7,1.4-2.6,2c-1.8,1.4-3.7,2.7-5.6,3.9c-1,0.6-2,1.3-3,1.8l-1.5,0.9l-1.6,0.8
				c-2.1,1.1-4.3,2.1-6.4,3c-2.2,0.9-4.3,1.7-6.5,2.3c-2.1,0.7-4.2,1.2-6.2,1.6c-2,0.4-3.9,0.8-5.7,1c-3.5,0.5-6.5,0.6-8.6,0.7
				C109.1,192.8,107.9,192.7,107.9,192.7z"/>
		</g>
		<g>
			<path class="st0" d="M70.8,193.4c3.1-2.3,7.3-1.8,7.3-1.8s-0.9,4.1-4,6.4c-3.1,2.3-7.3,1.8-7.3,1.8S67.7,195.6,70.8,193.4z"/>
			<path class="st0" d="M57.1,189.1c4.2-1.9,8.9-0.7,8.9-0.7s-2.2,4.3-6.4,6.2s-8.9,0.7-8.9,0.7S52.9,191,57.1,189.1z"/>
			<path class="st0" d="M42.4,182c6.6-1.2,12.7,1.5,12.7,1.5s-4.7,4.7-11.3,5.9s-12.7-1.5-12.7-1.5S35.8,183.2,42.4,182z"/>
			<path class="st0" d="M34.6,172.9c4.7-0.1,8.5,3.1,8.5,3.1s-3.7,3.4-8.4,3.5s-8.5-3.1-8.5-3.1S29.9,173,34.6,172.9z"/>
			<path class="st0" d="M27.1,163.7c4.5,0.9,7.6,4.1,7.6,4.1s-4.1,1.8-8.6,0.9c-4.5-0.9-7.6-4.1-7.6-4.1S22.6,162.9,27.1,163.7z"/>
			<path class="st0" d="M30.7,152.4c1.6,5.8-0.4,11.3-0.4,11.3s-4.5-3.8-6.1-9.5c-1.6-5.8,0.4-11.3,0.4-11.3S29.1,146.6,30.7,152.4z
				"/>
			<path class="st0" d="M40.9,163.4c0.1,4.6-2.4,8.3-2.4,8.3s-2.7-3.6-2.8-8.2c-0.1-4.6,2.4-8.3,2.4-8.3S40.8,158.9,40.9,163.4z"/>
			<path class="st0" d="M56.7,173.7c0.8,5-1.9,9.6-1.9,9.6s-4.1-3.5-4.9-8.4c-0.8-5,1.9-9.6,1.9-9.6S55.8,168.8,56.7,173.7z"/>
			<path class="st0" d="M70.6,183.8c2,3,1.9,6.6,1.9,6.6s-3.3-1.3-5.3-4.3s-1.9-6.6-1.9-6.6S68.6,180.8,70.6,183.8z"/>
			<path class="st0" d="M92.5,192.7c0,0-1.2,0.1-3.3,0.1c-2.1,0-5-0.2-8.6-0.7c-1.8-0.2-3.7-0.6-5.7-1c-2-0.5-4.1-1-6.2-1.6
				s-4.3-1.4-6.5-2.3c-2.2-0.9-4.3-1.9-6.4-3l-1.6-0.8l-1.5-0.9c-1-0.6-2-1.2-3-1.8c-2-1.3-3.9-2.6-5.6-3.9c-0.9-0.7-1.7-1.4-2.6-2
				c-0.8-0.7-1.6-1.4-2.4-2.1c-0.8-0.7-1.5-1.3-2.2-2s-1.4-1.3-2-2c-1.2-1.3-2.4-2.5-3.3-3.6c-0.9-1.1-1.8-2.1-2.4-2.9
				c-1.3-1.7-2-2.6-2-2.6s0.8,0.9,2.1,2.5c0.6,0.8,1.5,1.7,2.5,2.8c0.5,0.5,1,1.1,1.6,1.7c0.6,0.6,1.2,1.2,1.8,1.8s1.3,1.2,2,1.9
				s1.4,1.3,2.2,2s1.5,1.4,2.4,2c0.8,0.6,1.7,1.4,2.6,2c1.8,1.3,3.6,2.6,5.6,3.9c1,0.6,2,1.2,3,1.8l1.5,0.9l1.6,0.8
				c2.1,1.1,4.2,2.1,6.4,3s4.3,1.7,6.4,2.3c4.2,1.4,8.2,2.3,11.7,2.9c3.5,0.6,6.4,0.8,8.5,0.9C91.3,192.8,92.5,192.7,92.5,192.7z"/>
		</g>
	</g>
	<g>
		<g>
			<path class="st0" d="M73.9,75.3c-1,0-1.8-0.8-1.8-1.8s0.8-1.7,1.8-1.8c1,0,1.9,0.8,1.9,1.8C75.7,74.5,75,75.3,73.9,75.3z"/>
		</g>
		<g>
			<path class="st0" d="M126.4,127.1c-1,0-1.8-0.9-1.8-1.8c0-1,0.9-1.8,1.9-1.8s1.7,0.8,1.7,1.8
				C128.3,126.3,127.5,127.1,126.4,127.1z"/>
		</g>
		<g>
			<path class="st0" d="M115.6,128.6c-0.6,0-1.3-0.1-1.9-0.3c-1.7-0.4-3-1.1-4.1-2c-3.2-2.6-4.1-6.1-4.7-9.5
				c-0.1-0.8-0.6-4.5,0.9-6.8c0-0.1-0.1-0.1-0.1-0.2c-2.7-4.4-2.9-8.4-2.9-8.6v-0.1V101v-0.1c-2-0.1-4-0.2-5.8-0.1
				c-0.5,9.2-3.4,16.2-8.3,20.7c-6.8,6.3-15.2,5.6-15.5,5.6L72,127l-0.1-1.2c-0.1-0.5-1.3-12.5,6.8-20.7c3.8-3.9,9.1-6.2,15.6-7
				c0-0.1,0-0.3,0-0.4c-0.2-1.9-1-4.1-2.2-6.2c-0.4,0.3-0.9,0.6-1.5,0.8c-5,2.3-12.2,0.3-15.8-3c-2.4-2.2-3.3-4.9-2.4-7.6
				c0.6-1.9,2-3,3.9-3.3c0.8-0.1,1.7,0,2.6,0.1c-0.3-2.2,0.1-4.4,1.4-5.9c1.7-2,4.4-2.4,7.4-1.3c5.4,2.2,7.5,8.3,7.5,12.9
				c0,1.9-0.4,3.5-1.2,4.8c1.2,1.9,2.9,5.2,3.1,8.7c1.8-0.1,3.8,0,5.8,0.1c0.7-9.8,3.7-17.1,9-21.8c7.1-6.2,15.6-5.3,16-5.2l1.2,0.1
				l0.1,1.2c0.5,9.6-1.8,17.1-6.9,22.1c-5.7,5.7-13.3,6.5-16.6,6.6c0.1,0.6,0.4,3.5,2.3,6.8c1.3-0.7,2.6-1.2,4-1.5
				c4.9-1,9.5,0.3,12.9,3.8c1.3,1.3,2.8,3.3,3,5.7c0.1,1.4-0.5,2.9-1.5,3.8c-0.9,0.8-2.1,1.2-3.3,1c-0.7-0.1-1.4-0.2-2-0.4
				c0.1,0.5,0.2,1,0.3,1.5c0.4,2.1-0.3,4-2.1,5.5C118.3,128.1,117,128.6,115.6,128.6z M107.8,112.8c-0.2,1.1-0.2,2.4,0,3.6
				c0.5,3.3,1.3,5.8,3.6,7.7c0.8,0.6,1.7,1.1,3,1.4c0.8,0.2,2,0.3,2.9-0.5s1.3-1.7,1.1-2.7c-0.2-1-0.4-2.1-0.8-3
				C113.1,117.7,109.9,115.2,107.8,112.8z M94,101.2c-5.6,0.7-10.1,2.8-13.4,6.1c-5.7,5.8-6.1,13.9-6,17.1c2.4-0.1,7.7-0.8,12.1-4.9
				C90.9,115.5,93.4,109.4,94,101.2z M109.6,110.4c2.6,3.2,6.9,6.2,13.9,7.3c0.3,0.1,0.6,0,0.8-0.2c0.4-0.3,0.6-0.9,0.5-1.4
				c-0.1-1.1-0.9-2.5-2.1-3.8c-2.7-2.7-6.2-3.7-10.2-2.9C111.6,109.6,110.6,109.9,109.6,110.4z M126.2,74c-2.4,0-7.8,0.6-12.5,4.6
				c-4.7,4.1-7.4,10.7-8,19.6c2.9-0.1,9.5-1,14.4-5.8C124.4,88.3,126.4,82.1,126.2,74z M76.9,81.6c-0.2,0-0.3,0-0.5,0
				c-0.8,0.1-1.2,0.5-1.5,1.3c-0.5,1.5,0,3,1.6,4.4c3.2,2.9,9.2,4,12.6,2.5c0.3-0.2,0.6-0.3,0.9-0.5C87.2,86.3,80.5,81.6,76.9,81.6z
				 M82,80c3.7,1.7,7.5,4.7,9.8,6.9c0.2-0.7,0.3-1.4,0.3-2.3c-0.1-3.7-1.6-8.5-5.7-10.2c-1.3-0.5-3-0.8-4.1,0.4
				C81.3,76,81.2,78.1,82,80z"/>
		</g>
	</g>
	<path class="st0" d="M45.3,69.8l-0.6-0.4c0.7-1.1,0.7-2-0.2-2.6l-8.9-5.7c-0.8-0.5-1.5-0.1-2.3,1.1l-0.6-0.4l2-3.1
		c0.3-0.4,0.5-0.7,0.6-1c0.1-0.2,0.3-0.4,0.4-0.6c0.1-0.2,0.2-0.4,0.3-0.6c0.1-0.2,0.3-0.4,0.5-0.7c1.8-2.8,3.9-3.4,6.4-1.9
		c0.5,0.3,0.9,0.7,1.2,1.1c0.3,0.4,0.5,0.9,0.6,1.5s0,1.2-0.1,1.8c-0.2,0.7-0.5,1.4-1,2.1c-0.3,0.4-0.5,0.8-0.8,1.1
		c-0.3,0.4-0.6,0.7-0.9,1l3.7,2.4c1,0.6,1.8,0.3,2.6-0.9l0.6,0.4L45.3,69.8z M36.2,57.7c-0.3,0.5-0.2,1,0.5,1.4l4.5,2.9
		c0.3-0.3,0.5-0.6,0.8-0.9c0.3-0.4,0.6-0.8,0.9-1.2c0.3-0.4,0.4-0.8,0.5-1.2c0-0.4,0-0.8-0.1-1.1c-0.1-0.4-0.3-0.7-0.6-1
		s-0.6-0.6-1-0.8c-2-1.3-3.7-0.8-5.1,1.5L36.2,57.7z"/>
	<path class="st0" d="M56.4,54.8L56,54.3c1-1,1.2-1.8,0.5-2.6l-6.8-7.3c-0.9-1-1.9-0.9-3,0.1L46.2,44l4.8-4.4l0.5,0.5
		c-1,0.9-1.1,1.9-0.2,2.9l6.8,7.3c0.7,0.8,1.6,0.6,2.6-0.3l0.5,0.5L56.4,54.8z"/>
	<path class="st0" d="M77.7,40.4L63,33.8l4.2,8c0.8,1.6,1.9,2,3.3,1.3l0.3,0.6L66,46.2l-0.3-0.6c1.1-0.6,1.3-1.7,0.4-3.2l-4.6-8.8
		c-0.3-0.6-1.1-0.5-2.4,0.2l-0.3-0.6l3.6-1.9l13,5.8L71.7,30c-0.8-1.5-1.8-1.8-3.2-1.1l-0.3-0.6l4.8-2.5l0.3,0.6
		c-1.2,0.6-1.4,1.7-0.7,3.1L78.1,40L77.7,40.4z"/>
	<path class="st0" d="M97.9,35.5l-1.8-0.9c-0.4,0.5-1,0.9-1.7,1.2s-1.4,0.6-2.1,0.7c-1,0.2-2,0.1-2.9-0.1c-0.9-0.2-1.7-0.7-2.4-1.2
		c-0.7-0.6-1.3-1.3-1.8-2.1s-0.8-1.8-1-2.8s-0.2-2,0-3s0.5-1.9,1.1-2.8c0.5-0.8,1.2-1.6,2-2.1c0.8-0.6,1.7-1,2.8-1.1
		c0.6-0.1,1.3-0.1,1.9,0s1.2,0.3,1.8,0.5c0.4-0.6,0.9-1,1.4-1.2c0.7,1.1,1.2,2.8,1.6,4.9L96,25.6c-0.5-1.2-1.3-2.2-2.2-2.9
		c-1-0.7-2.1-0.9-3.3-0.7c-0.9,0.1-1.6,0.5-2.2,0.9c-0.6,0.5-1,1.1-1.3,1.8c-0.3,0.7-0.5,1.5-0.5,2.3s0,1.7,0.2,2.5
		c0.2,0.9,0.4,1.8,0.7,2.6c0.3,0.8,0.8,1.5,1.3,2c0.5,0.6,1.1,1,1.8,1.2c0.7,0.3,1.4,0.3,2.2,0.2c0.5-0.1,0.9-0.2,1.3-0.4
		s0.7-0.4,1-0.7s0.5-0.7,0.6-1.1c0.1-0.4,0.1-0.9,0-1.5c-0.2-1.5-1.1-2.2-2.6-1.9v-0.7l6.3-1l0.1,0.7c-1.3,0.2-1.9,0.9-1.7,2
		l0.7,4.6H97.9z"/>
	<path class="st0" d="M120.5,24.9c0.2-1.3-0.4-2.1-2-2.3l0.1-0.7l5.1,0.8l-0.1,0.7c-1.2-0.2-1.9,0.4-2.2,1.7l-1.1,6.7
		c-0.1,0.8-0.3,1.6-0.6,2.3c-0.3,0.7-0.7,1.2-1.2,1.6c-0.5,0.4-1.2,0.7-2.1,0.8s-2,0.1-3.4-0.1c-0.9-0.1-1.6-0.4-2.2-0.7
		s-1.1-0.8-1.5-1.3s-0.6-1.1-0.8-1.7c-0.1-0.6-0.1-1.3,0-2l1.3-7.9c0.2-1.1-0.4-1.7-1.8-2l0.1-0.7l6.4,1l-0.1,0.7
		c-1.4-0.2-2.2,0.2-2.4,1.3l-1.2,7.3c-0.1,0.5-0.1,1-0.2,1.6c0,0.5,0,1,0.2,1.5s0.5,0.9,1.1,1.2c0.5,0.4,1.3,0.6,2.3,0.8
		c0.9,0.2,1.7,0.1,2.3-0.1c0.6-0.2,1.1-0.5,1.5-0.9s0.6-0.8,0.8-1.3c0.2-0.5,0.3-1,0.4-1.4L120.5,24.9z"/>
	<path class="st0" d="M126.8,39.8l0.3-0.6c1.3,0.6,2.2,0.4,2.6-0.5l4.2-9.1c0.6-1.2,0.2-2.1-1.2-2.7l0.3-0.6l5.9,2.7l-0.3,0.6
		c-1.3-0.6-2.2-0.3-2.7,0.9l-4.2,9.1c-0.4,0.9,0,1.7,1.3,2.3l-0.3,0.6L126.8,39.8z"/>
	<path class="st0" d="M151.3,50.7c-0.6,0.5-1.2,0.9-1.9,1.1c-0.6,0.2-1.3,0.3-2,0.3s-1.3-0.2-1.9-0.5c-0.6-0.3-1.2-0.6-1.8-1.1
		c-0.8-0.7-1.5-1.4-1.9-2.3c-0.4-0.8-0.7-1.7-0.7-2.6c-0.1-0.9,0.1-1.8,0.4-2.7c0.3-0.9,0.8-1.8,1.5-2.6c0.7-0.9,1.6-1.6,2.5-2.1
		s1.8-0.9,2.8-1c0.9-0.1,1.9-0.1,2.8,0.1c0.9,0.2,1.7,0.6,2.5,1.3c0.9,0.7,1.5,1.7,1.9,2.9c0.7-0.1,1.4,0,1.8,0.3
		c0,0.1,0,0.2-0.2,0.5c-0.1,0.3-0.3,0.6-0.5,1s-0.5,0.9-0.8,1.4s-0.7,1-1.1,1.5l-0.6-0.5c0.6-1.3,0.9-2.5,0.7-3.6s-0.7-2-1.6-2.7
		c-0.6-0.5-1.3-0.8-2-0.9c-0.7-0.1-1.3,0-2,0.2s-1.3,0.5-1.9,1c-0.6,0.5-1.1,1-1.6,1.6c-0.7,0.8-1.2,1.6-1.6,2.5
		c-0.4,0.8-0.7,1.6-0.8,2.4c-0.1,0.8,0,1.5,0.2,2.2c0.3,0.7,0.7,1.3,1.4,1.9c0.4,0.4,0.9,0.6,1.3,0.8c0.4,0.2,0.9,0.3,1.4,0.3
		s1-0.1,1.6-0.3s1.2-0.5,1.9-0.9L151.3,50.7z"/>
	<path class="st0" d="M157.1,65l0.6-0.4c0.1,0.2,0.3,0.3,0.4,0.5c0.2,0.2,0.3,0.3,0.4,0.5c0.1,0.1,0.3,0.2,0.4,0.3
		c0.1,0.1,0.2,0.1,0.3,0c0,0,0.1-0.1,0.2-0.2c0.1-0.1,0.2-0.2,0.3-0.3l1.7-2.4c0.2-0.4,0.1-0.8-0.3-1.5l-1.9-2.8
		c-0.3-0.5-0.7-0.6-1.1-0.5l-2.4,0.7c-0.1,0-0.3,0.1-0.5,0.2c-0.6,0.4-0.5,1.1,0.2,2.2l-0.7,0.4l-2.8-4.2l0.7-0.4
		c0.3,0.3,0.6,0.6,1,0.7c0.4,0.1,0.9,0.1,1.4,0l13.6-2.7l0.2,0.7l-8.1,11.9c-0.1,0.3-0.2,0.6-0.2,0.7c0,0,0,0.2,0.1,0.4
		c0.1,0.2,0.2,0.5,0.3,0.9l-0.6,0.4L157.1,65z M166,56.7l-5,1c-0.4,0.1-0.6,0.1-0.8,0.2c-0.2,0.1-0.1,0.4,0.2,0.9l1.6,2.3
		c0.3,0.4,0.5,0.5,0.6,0.4c0.1,0,0.2-0.2,0.5-0.6L166,56.7z"/>
	<path class="st0" d="M113.2,17.7c0,0.7-0.5,1.3-1.2,1.3s-1.3-0.5-1.3-1.2s0.5-1.3,1.2-1.3C112.5,16.4,113.1,17,113.2,17.7z"/>
	<path class="st0" d="M123,19.5c0,0.7-0.5,1.3-1.2,1.3s-1.3-0.5-1.3-1.2s0.5-1.3,1.2-1.3C122.4,18.3,123,18.8,123,19.5z"/>
	<path class="st0" d="M138.6,24.8c0,0.7-0.5,1.3-1.2,1.3s-1.3-0.5-1.3-1.2s0.5-1.3,1.2-1.3C138,23.5,138.6,24.1,138.6,24.8z"/>
</g>
</svg>
