<?xml version="1.0" encoding="utf-8"?>
<!-- Generator: Adobe Illustrator 22.0.0, SVG Export Plug-In . SVG Version: 6.00 Build 0)  -->
<svg version="1.1" id="Layer_1" xmlns="http://www.w3.org/2000/svg" xmlns:xlink="http://www.w3.org/1999/xlink" x="0px" y="0px"
	 viewBox="0 0 500 163.6" style="enable-background:new 0 0 500 163.6;" xml:space="preserve">
<style type="text/css">
	.st0{fill:#191919;}
	.st1{fill:#343433;}
	.st2{fill:#50B4AA;}
	.st3{fill:#53B5AB;}
	.st4{fill:#3AABA1;}
	.st5{fill:#4C4C4C;}
	.st6{fill:#FE4F5E;}
	.st7{fill:#F6F6F6;}
	.st8{fill:#FE2831;}
	.st9{fill:#FE5B69;}
	.st10{fill:#FE5E6C;}
	.st11{fill:#FE7E87;}
	.st12{fill:#FE7A85;}
	.st13{fill:#FE9DA3;}
	.st14{fill:#FE7681;}
	.st15{fill:#FE4756;}
	.st16{fill:#FE6D79;}
	.st17{fill:#FE6774;}
	.st18{fill:#FE97A0;}
	.st19{fill:#FE1C27;}
	.st20{fill:#D3C1C0;}
	.st21{fill:#FE0008;}
	.st22{fill:#FE3238;}
	.st23{fill:#FE363A;}
	.st24{fill:#FEFEFE;}
	.st25{fill:#010000;}
	.st26{fill:#333333;}
	.st27{fill:#E3D4D0;}
	.st28{fill:#827876;}
	.st29{fill:#686160;}
</style>
<g>
	<path class="st28" d="M148.2,47.3c12.7,13.9,24.7,27,36.6,40.1c1.5-0.9,0.8-2.3,0.8-3.3c0.1-10.1,0.3-20.1-0.1-30.2
		c-0.1-4.3,2.3-3.9,4.9-3.8c2.4,0.1,5.2-1.1,5.2,3.5c-0.2,19.5-0.1,39-0.1,59.9c-12.9-14-25-27.3-37.9-41.3c0,12-0.2,22.9,0.1,33.8
		c0.1,4-1.5,4.4-4.8,4.3c-3-0.1-5,0.1-4.9-4.2C148.4,86.9,148.2,67.7,148.2,47.3z"/>
	<path class="st28" d="M264.8,50.1c-7,9.2-13.3,17.7-19.8,25.9c-1.9,2.4-1.9,3.9,0.1,6.2c7.8,8.9,15.4,18.1,23.6,27.7
		c-6.4,0.4-11.8,1.7-16.3-4.5c-5.3-7.3-11.9-13.8-18.7-21.6c0,7.5,0,14,0,20.5c0,5.5-3.5,7.8-8.6,5.9c-1.5-0.5-1.2-1.6-1.2-2.6
		c0-18.2,0-36.5,0-54.7c0-2,0.7-2.6,2.6-2.8c7.3-0.6,7.3-0.7,7.3,6.4c0,5.5,0,11,0,17.8c5.5-7,10.5-12.9,14.8-19.1
		c2.8-4,5.9-5.9,10.7-5.1C260.6,50.3,262.2,50.1,264.8,50.1z"/>
	<path class="st28" d="M462.4,71.8c0,6-0.1,12.1,0,18.1c0.1,6.7,4.9,10.8,12.4,10.8c7.9,0.1,12.7-3.9,12.8-10.9
		c0.1-11.9,0.3-23.8-0.1-35.7c-0.1-4.6,2.3-4,5.2-4.1c3.1-0.1,5.1-0.1,5,4.2c-0.4,11.4-0.1,22.9-0.1,34.4
		c-0.1,10.2-5,17.4-13.8,20.4c-10.2,3.4-21.7,0.4-27.4-7.2c-3.1-4.1-3.7-8.8-3.7-13.6c-0.1-11.5,0.2-22.9-0.1-34.4
		c-0.1-4.8,2.9-3.6,5.4-3.8c2.6-0.2,4.8-0.3,4.5,3.6C462.1,59.7,462.4,65.8,462.4,71.8z"/>
	<path class="st28" d="M32.9,59.9c-7.6,0-14.3-0.1-21,0.1c-2.8,0.1-3.4-1.3-2.7-3.3c0.7-2.2-2.6-6.4,2.4-6.5
		c12.6-0.3,25.3-0.1,38.8-0.1c-10.4,17.1-20.3,33.5-30.8,50.6c9,0,17.3,0.3,25.5-0.1c4.3-0.2,4.1,1.9,4.2,4.9
		c0.1,3.2-0.3,4.9-4.3,4.8C31,110,17,110.2,2.4,110.2C12.6,93.3,22.5,76.9,32.9,59.9z"/>
	<path class="st28" d="M330.4,114.5c-0.7-0.3-1.3-0.6-2-0.8c11.7-2.1,18.8-9.8,23.9-19.8c0.4-0.8,1-1.5,1.6-2.3c0.1-0.1,0.5,0,0.8,0
		C352,102.7,341.9,112.2,330.4,114.5z"/>
	<path class="st28" d="M292.3,55.1c0.3,0.3,0.6,0.7,1,1c-2.3,4.1-4.7,8.3-7,12.4c-0.3-0.2-0.7-0.4-1-0.6
		C286.9,63.4,288.9,58.9,292.3,55.1z"/>
	<path class="st28" d="M397.3,50.1c-16.5-0.1-30,13.3-30.2,30c-0.1,16.8,13.3,30.1,30.3,30.1c16.9,0,29.8-13.1,29.8-30
		C427.2,63.4,414,50.2,397.3,50.1z M397.3,100.8c-11.2,0-20.5-9.2-20.6-20.2c-0.1-11.1,9.1-20.5,20.1-20.6
		c11.3-0.1,20.9,9.2,20.9,20.5C417.8,91.3,408.3,100.8,397.3,100.8z"/>
	<path class="st29" d="M345.6,53.6c0.4-1,1.7-2.6-0.5-2.8c-2.5-0.3-5.1-0.9-6.2,2.8c-1.9,6.2-4.5,12.2-6.7,18.3
		c-3.2,9.1-7.1,17.8-13.6,25.1c-2.5,2.8-5.3,5.3-8.8,6.6c-5.2,1.9-9-0.7-9.2-6.2c-0.1-3.5,0.8-6.8,2.1-9.9c2.4-5.7,5-11.3,7.4-17
		c1.9-4.4,3.6-8.9,3.6-13.8c-0.1-5.6-3.4-8.8-9-9c-5.8-0.2-9.4,3.3-12.4,7.6c-0.3,1,0.1,1.2,1,1c1.3-1.4,2.4-2.8,3.8-4
		c2.1-1.9,4.7-3.6,7.5-2.2c2.7,1.4,1.8,4.3,1.8,6.7c0.1,2.5-0.7,4.9-1.6,7.2c-1.8,4.4-3.7,8.8-5.7,13.2c-2.2,5-4.1,10-4.7,15.4
		c-0.5,4.7,0.5,9,4.7,11.9c4.2,2.8,8.7,2.7,13.2,0.5c2.4-1.2,4.4-2.9,6.3-4.7c0.8-0.7,1.1-2.3,3.2-1.8c-1.6,3.9-3.5,7.6-4.7,11.5
		c-1.3,4-3.7,5.3-7.7,5.8c-7.4,0.9-15,1.4-22.1,4.3c-6.6,2.8-9.2,6.7-8,12.3c1.1,4.8,5.2,7.2,12.1,6.9c10.9-0.5,18.7-6.3,24.2-15
		c3.6-5.8,7.6-9.6,14.7-9.6c0-1.7-1.1-1.1-2-0.8c-5.9,0.3-5.9,0.3-3.5-5.1C332.8,90.6,338.7,71.9,345.6,53.6z M290.5,137.1
		c-3.8,0.1-7.2-0.4-8.5-4.7c-1.3-4.5,0.8-7.4,4.5-9.6c5.9-3.4,12.5-4.1,19-5.2c2.6-0.4,5.2-0.6,7.9-0.8
		C309.4,128.8,300.4,136.8,290.5,137.1z"/>
	<path class="st28" d="M97.7,47.2c-8.9,21.3-17.4,41.9-26.2,63c2.8,0,4.9-0.2,7,0c2.7,0.3,4-0.7,5-3.4c3.5-9.4,3.7-9.4,13.9-9.4
		c0.2,0,0.3,0,0.5,0c10.3,0,10.3,0,14.2,9.6c0.8,2.1,1.8,3.3,4.3,3.1c2.3-0.2,4.6,0,7.6,0C115.1,89.1,106.5,68.5,97.7,47.2z
		 M90.8,88.7c2.3-5.8,4.5-11.3,7-17.4c2.4,6.1,4.6,11.5,7,17.4C99.8,88.7,95.6,88.7,90.8,88.7z"/>
</g>
</svg>
